Case 2: Ã…rlig bruttonasjonalprodukt 1865-2011
…
Vi gjÃ¸r klar til Ã¥ bearbeide tabellen slik at den blir formatert riktig. FÃ¸rst fjerner vi manglende observasjon.

tabell <- tabell %>% drop_na()

Deretter lager vi nye variabelnavn, og gjÃ¸r tabellen om til en tibble data.frame.

names(tabell) <- c("Ã…r", "BNP", "BNP_endring",
                   "BNP_percap", "BNP_percap_endring")

tabell <- as_tibble(tabell)

tabell

# A tibble: 147 x 5
      Ã…r BNP    BNP_endring BNP_percap BNP_percap_endring
   <int> <chr>  <chr>            <int> <chr>             
 1  1865 31 785 ""               18806 ""                
 2  1866 32 375 "1,9"            18963 "0,8"             
 3  1867 33 173 "2,5"            19322 "1,9"             
 4  1868 33 133 "-0,1"           19207 "-0,6"            
 5  1869 34 411 "3,9"            19880 "3,5"             
 6  1870 34 328 "-0,2"           19764 "-0,6"            
 7  1871 34 930 "1,8"            20002 "1,2"             
 8  1872 37 205 "6,5"            21176 "5,9"             
 9  1873 38 084 "2,4"            21523 "1,6"             
10  1874 39 521 "3,8"            22120 "2,8"             
# ... with 137 more rows
…
tabell <-
  tabell %>% 
  mutate(BNP=str_replace(BNP, " ", ""),
         BNP_endring=na_if(BNP_endring, ""),
         BNP_percap_endring=na_if(BNP_percap_endring, ""),
         BNP_endring=str_replace(BNP_endring, ",","."),
         BNP_percap_endring=str_replace(BNP_percap_endring, ",",".")) %>% 
  mutate_if(is.character, as.numeric)

Warning in mask$eval_all_mutate(quo): NAs introduced by coercion

tabell

# A tibble: 147 x 5
      Ã…r   BNP BNP_endring BNP_percap BNP_percap_endring
   <int> <dbl>       <dbl>      <int>              <dbl>
 1  1865 31785        NA        18806               NA  
 2  1866 32375         1.9      18963                0.8
 3  1867 33173         2.5      19322                1.9
 4  1868 33133        -0.1      19207               -0.6
 5  1869 34411         3.9      19880                3.5
 6  1870 34328        -0.2      19764               -0.6
 7  1871 34930         1.8      20002                1.2
 8  1872 37205         6.5      21176                5.9
 9  1873 38084         2.4      21523                1.6
10  1874 39521         3.8      22120                2.8
# ... with 137 more rows
…
